…
# Again, the path = , and paste0 shenanigans is only needed for the website. 
# In a normal situation just read_csv(samples[1]) would be enough.

path <- "./20210106data/"
sample1 <- read_csv(paste0(path, samples[1]))

## Parsed with column specification:
## cols(
##   `Data File Name` = col_character(),
##   `2100 expert_Eukaryote Total RNA Nano_DE13805377_2020-05-25_11-42-52.xad` = col_character()
## )

sample1

## # A tibble: 1,074 x 2
##    `Data File Name`     `2100 expert_Eukaryote Total RNA Nano_DE13805377_2020-0~
##    <chr>                <chr>                                                   
##  1 Data File Path       "C:\\Program Files (x86)\\Agilent\\2100 bioanalyzer\\21~
##  2 Date Created         "Monday, May 25, 2020 9:42:52 AM"                       
##  3 Date Last Modified   "Monday, May 25, 2020 10:06:42 AM"                      
##  4 Version Created      "B.02.10.SI764"                                         
##  5 Version Last Modifi~ "B.02.10.SI764"                                         
##  6 Assay Name           "Eukaryote Total RNA Nano Series II"                    
##  7 Assay Path           "C:\\Program Files (x86)\\Agilent\\2100 bioanalyzer\\21~
##  8 Assay Title          "Eukaryote Total RNA Nano"                              
##  9 Assay Version        "2.6"                                                   
## 10 Number of Samples R~ "12"                                                    
## # ... with 1,064 more rows
…
